<?xml version="1.0" encoding="utf-8"?>
<!-- Generator: Adobe Illustrator 21.0.2, SVG Export Plug-In . SVG Version: 6.00 Build 0)  -->
<svg version="1.1" id="Capa_1" xmlns="http://www.w3.org/2000/svg" xmlns:xlink="http://www.w3.org/1999/xlink" x="0px" y="0px"
	 viewBox="0 0 216 53.1" style="enable-background:new 0 0 216 53.1;" xml:space="preserve">
<style type="text/css">
	.st0{fill:#FFFFFF;}
</style>
<g>
	<g>
		<path d="M132.5,49.4c0,0.8,0,1.7,0,2.5c-0.4,1.4-1.3,1.7-2.7,1.7c-7.9,0-15.8,0-23.7,0c-0.5,0-0.9-0.1-1.1-0.1
			c-0.3-3.7-0.5-7.3-0.9-10.8c-0.1-0.5-1.1-1.2-1.7-1.2c-3.1-0.1-6.3,0-9.4-0.1c-1.2,0-1.8,0.6-1.9,1.8c-0.2,3.5-0.5,6.9-0.7,10.4
			c-0.1,0-0.2,0.1-0.4,0.1c-8.3,0-16.6,0-24.9,0c-1.3,0-1.9-0.6-2.2-1.7c0-0.8,0-1.7,0-2.5c0.4-1.1,0.7-2.1,1.1-3.2
			C69,33.1,74.2,20.1,79.5,7c0.8-1.9,1.5-2.4,3.5-2.4c2.9,0,5.9,0,8.8,0c0.8,0,1.6,0,2.1,0c-0.2,3-0.5,5.8-0.6,8.6
			c0,0.4,0.8,1.1,1.3,1.1c2,0.1,3.9,0,5.9,0.1c1,0,1.4-0.5,1.4-1.4c-0.2-2.7-0.5-5.5-0.7-8.3c3.6,0,7.4,0,11.2,0
			c1.7,0,2.7,0.8,3.3,2.3C121.3,21,126.9,35.2,132.5,49.4z M97.6,34c1.4,0,2.8,0,4.2,0c1.1,0,1.6-0.4,1.6-1.6
			c-0.3-3.9-0.6-7.7-0.8-11.6c-0.1-1.1-0.7-1.6-1.8-1.6c-2.1,0-4.1,0-6.2,0c-1.1,0-1.7,0.5-1.8,1.6c-0.3,3.9-0.5,7.7-0.8,11.6
			c-0.1,1.1,0.4,1.5,1.4,1.5C94.7,34,96.2,34,97.6,34z"/>
		<path class="st0" d="M97.6,34c-1.4,0-2.9,0-4.3,0c-1,0-1.5-0.5-1.4-1.5c0.3-3.9,0.6-7.7,0.8-11.6c0.1-1.1,0.7-1.6,1.8-1.6
			c2.1,0,4.1,0,6.2,0c1.1,0,1.7,0.5,1.8,1.6c0.3,3.9,0.5,7.7,0.8,11.6c0.1,1.2-0.5,1.6-1.6,1.6C100.4,34,99,34,97.6,34z"/>
	</g>
</g>
<g>
	<path d="M42.1,6.8l-14,46.3H16.5L2.5,6.8h11.6l9.3,33.1L33,6.8H42.1z"/>
	<path d="M57.1,6.8v46.3H46.3V6.8H57.1z"/>
</g>
<g>
	<path d="M149.8,36.4v17.2h-11V7.2H157c4.1,0,7.2,0.4,9.3,1.3c2.2,0.9,4.1,2.4,5.8,4.7c1.7,2.2,2.5,5,2.5,8.2c0,2.3-0.5,4.5-1.4,6.7
		c-0.9,2.2-2.2,3.9-3.8,5.1s-3.3,2.1-4.8,2.5s-4,0.6-7.3,0.6H149.8z M149.4,27.9h7.1c2.7,0,4.6-0.6,5.7-1.9s1.6-2.7,1.6-4.3
		c0-1.9-0.6-3.4-1.8-4.5c-1.2-1.1-3-1.7-5.5-1.7h-7V27.9z"/>
	<path d="M191.7,36.4v17.2h-11V7.2H199c4.1,0,7.2,0.4,9.3,1.3c2.2,0.9,4.1,2.4,5.8,4.7c1.7,2.2,2.5,5,2.5,8.2c0,2.3-0.5,4.5-1.4,6.7
		c-0.9,2.2-2.2,3.9-3.8,5.1s-3.3,2.1-4.8,2.5s-4,0.6-7.3,0.6H191.7z M191.4,27.9h7.1c2.7,0,4.6-0.6,5.7-1.9s1.6-2.7,1.6-4.3
		c0-1.9-0.6-3.4-1.8-4.5c-1.2-1.1-3-1.7-5.5-1.7h-7V27.9z"/>
</g>
</svg>
